<svg xmlns="http://www.w3.org/2000/svg" width="25" height="60" viewBox="0 0 25 60">
    <path id ="subir_path" fill="#988767" fill-rule="evenodd" d="M1182.37,1864.29a0.727,0.727,0,0,1-.08.29c0,2,3.32,3.56,8.54,3.56,4.53,0,8.38-1.26,9.21-2.97a1.228,1.228,0,0,1,.23.67v3.26c0,1.56-3.93,3.26-9.52,3.26s-9.52-1.71-9.52-3.26v-3.26a1.867,1.867,0,0,1,1.14-1.55h0Zm0-.89c-1.36.66-2.12,1.55-2.12,2.51v1.04c-2.04.82-3.25,1.85-3.25,3.04v1.33c1.44,3.34,12.01,4.52,12.01,4.52-5.96,0-10.87-1.55-12.01-3.63v1.56c1.43,3.33,12.01,4.52,12.01,4.52-5.97,0-10.88-1.56-12.01-3.63v1.7c1.43,3.34,12.01,4.53,12.01,4.53-5.97,0-10.88-1.56-12.01-3.63v1.7c1.43,3.33,12.01,4.52,12.01,4.52-5.97,0-10.88-1.56-12.01-3.63v1.7c1.43,3.33,12.01,4.52,12.01,4.52-5.97,0-10.88-1.56-12.01-3.63v1.04c0,2.52,5.52,4.52,12.24,4.52s12.31-2.01,12.31-4.52v-13.64a1.8,1.8,0,0,0-.45-1.18v-2.97a2.388,2.388,0,0,0-.98-1.77,4.76,4.76,0,0,0-1.63-.75c-0.58-.11-14.54-0.24-14.85-0.2A5.492,5.492,0,0,0,1182.37,1863.4Zm-0.15-32.9a2.359,2.359,0,0,1,2.35-2.5c1.43,0.01,2.1,1.57,2.1,2.52l-0.06,13.41a0.855,0.855,0,0,0,1.71.01l0.03-6.83a0.723,0.723,0,0,1,.65-0.7h0.21a2.531,2.531,0,0,1,2.56,2.52l-0.03,5.03a0.855,0.855,0,0,0,1.71,0l0.03-5.15a0.707,0.707,0,0,1,.65-0.7h0.2a2.531,2.531,0,0,1,2.56,2.52l-0.03,5.02a0.858,0.858,0,0,0,.86.85,0.847,0.847,0,0,0,.85-0.84l0.02-3.47a0.707,0.707,0,0,1,.65-0.7,1.477,1.477,0,0,1,.21-0.01,2.537,2.537,0,0,1,2.55,2.53l-0.02,4.19c-0.03,6.72-3.48,12.61-3.49,15.07a0.84,0.84,0,1,1-.02,1.68l-14.68-.07a0.858,0.858,0,0,1-.87-0.84,0.869,0.869,0,0,1,.86-0.84c0-.38-6.8-6.99-6.78-11.76l0.02-3.35a5.277,5.277,0,0,1,2.62-4.12,0.512,0.512,0,0,1,.81.41l-0.01,2.9a0.856,0.856,0,0,0,1.71,0Z" transform="translate(-1177 -1828)"/>
</svg>
